<?xml version="1.0" encoding="UTF-8"?>
<!DOCTYPE svg PUBLIC "-//W3C//DTD SVG 1.1//EN" "http://www.w3.org/Graphics/SVG/1.1/DTD/svg11.dtd">
<!-- Creator: CorelDRAW -->
<svg xmlns="http://www.w3.org/2000/svg" xml:space="preserve" width="215.9mm" height="279.4mm" style="shape-rendering:geometricPrecision; text-rendering:geometricPrecision; image-rendering:optimizeQuality; fill-rule:evenodd; clip-rule:evenodd"
viewBox="0 0 215.9 279.4"
 xmlns:xlink="http://www.w3.org/1999/xlink">
 <defs>
  <style type="text/css">
   <![CDATA[
    .fil2 {fill:#9ACDCC}
    .fil1 {fill:#EE7F01}
    .fil3 {fill:#1F1A17;fill-rule:nonzero}
    .fil0 {fill:black;fill-rule:nonzero}
   ]]>
  </style>
 </defs>
 <g id="Capa_x0020_1">
  <metadata id="CorelCorpID_0Corel-Layer"/>
  <g id="_117362816">
   <path id="_117364880" class="fil0" d="M170.418 74.8207c4.5604,-1.6792 8.8306,-1.0321 12.8106,1.9414 1.5049,1.0734 2.7594,3.2748 3.7633,6.6041 1.6344,5.2427 2.3429,11.788 2.1253,19.6359 0.7166,-0.2638 1.7128,-1.0744 2.9885,-2.4319 0.7681,-0.7267 1.6701,-2.0946 2.706,-4.1035 1.1284,-2.561 2.2537,-5.9345 3.3756,-10.1205 0.9882,-3.545 1.6522,-6.5637 1.9921,-9.0563 0.4391,-1.4193 0.8542,-2.201 1.245,-2.3449 0.4149,-0.0788 0.7303,0.175 0.9462,0.7614 0.5105,1.5874 0.2148,6.2091 -0.8873,13.865 -0.6591,4.2376 -1.9165,8.6585 -3.7723,13.2628 -2.4045,5.3241 -5.3006,8.6098 -8.6882,9.8571l-1.2705 0.4678c-0.4494,1.7931 -1.0292,3.6342 -1.7393,5.5232 -1.8042,4.1413 -4.5957,6.9077 -8.3742,8.299 -4.2346,1.5592 -8.174,1.3081 -11.8182,-0.7532 -3.1402,-2.0989 -5.3921,-5.3017 -6.7558,-9.6082 -1.5386,-4.982 -1.9539,-11.6353 -1.246,-19.9598 1.4938,-12.0169 5.6935,-19.2967 12.5992,-21.8394zm-0.3222 17.208c0.8772,2.7842 2.9407,5.5755 6.1905,8.3738 0.9461,0.7614 2.1768,1.4919 3.6921,2.1916 -0.0362,-7.5326 -0.7396,-13.5619 -2.1103,-18.0879 -0.8771,-2.7842 -1.9243,-4.3221 -3.1413,-4.6137 -0.2435,-0.0584 -0.5281,-0.0276 -0.8538,0.0923 -1.6974,1.2169 -2.9819,4.0571 -3.8536,8.5211 -0.3569,1.241 -0.3313,2.4153 0.0764,3.5228zm0.7618 23.4672c0.9491,2.9796 2.1128,4.7336 3.491,5.2618l0.4885 -0.1799c1.9545,-0.7196 3.3728,-3.4982 4.2549,-8.3358 -1.6045,-0.7408 -3.058,-1.5743 -4.3607,-2.5003 -2.1357,-1.581 -3.8086,-3.1104 -5.0186,-4.5884 -0.3634,-0.384 -0.569,-0.6412 -0.617,-0.7716 -0.0651,0.024 0.0015,1.1092 0.2,3.2555 0.4279,3.1716 0.9486,5.7912 1.5619,7.8587z"/>
   <path id="_118686168" class="fil0" d="M128.517 88.8064c4.7211,-0.0368 6.7726,2.7218 6.1544,8.2761 -0.0758,1.8034 -0.0254,2.8946 0.1511,3.2735 0.1764,0.3788 1.1734,-0.2287 2.9909,-1.8226 1.8175,-1.594 3.4429,-2.6548 4.8761,-3.1825 1.8893,-0.6957 3.433,-0.6722 4.6312,0.0703 1.1981,0.7426 1.8657,1.551 2.0027,2.4253 0.1369,0.8743 0.054,4.2155 -0.2489,10.0234l-0.5074 17.6092c-0.1477,1.608 0.0458,2.5354 0.5807,2.7823 1.1726,-0.4317 3.3507,-5.2656 6.5342,-14.5017 1.9212,-6.0339 3.345,-11.1079 4.2715,-15.222 0.3947,-2.1429 0.7157,-4.1845 0.963,-6.1251 0.3807,-1.1758 0.734,-1.8238 1.0597,-1.9437l0.1955 -0.072c0.3257,-0.1199 0.5966,0.1132 0.8125,0.6996 0.7436,2.0196 0.132,8.4961 -1.8347,19.4295 -3.274,16.2235 -6.898,25.0668 -10.872,26.5301 -2.9317,1.0794 -5.7242,0.628 -8.3775,-1.3543 -1.1485,-0.9088 -1.9745,-2.0472 -2.4782,-3.4153 -0.3598,-0.9773 -0.5036,-2.7739 -0.431,-5.3899 -0.0038,-15.6823 -0.0005,-23.7104 0.0098,-24.0841 -0.072,-0.1954 -0.1937,-0.2246 -0.3651,-0.0875 -0.6035,0.3702 -1.7523,1.5699 -3.4464,3.5994 -0.5488,0.7198 -1.1814,1.2117 -1.8981,1.4756l-0.5863 0.2159c-1.9544,0.7196 -3.943,0.342 -5.9656,-1.1326 -0.7266,-0.7682 -1.2459,-1.5757 -1.5577,-2.4226 -0.3359,-0.9121 -0.4795,-2.7087 -0.431,-5.3898 -0.1295,-4.1692 -0.1169,-6.9481 0.0376,-8.3367 0.1614,-1.1691 1.4044,-1.8117 3.729,-1.9278z"/>
   <path id="_117364184" class="fil0" d="M104.384 101.021c3.2574,-1.1994 6.8009,-1.3204 10.6304,-0.363 1.3714,0.3087 2.6775,1.3444 3.9183,3.107 0.7095,0.9224 1.2922,2.0025 1.748,3.2404l0.1439 0.3908c1.4632,3.9741 1.344,8.9746 -0.3578,15.0018 -0.6449,1.865 -1.348,3.2706 -2.1094,4.2168 -1.5398,2.0465 -3.2218,3.4056 -5.0459,4.0772l-0.5864 0.216c-2.0195,0.7436 -4.1641,0.6454 -6.4337,-0.2945l0 0c0.253,3.9018 0.7273,6.7974 1.4229,8.6867 0.9115,2.4756 2.2896,3.7067 4.1342,3.6933 0.5931,0.0036 1.0852,-0.0666 1.476,-0.2106l0.4886 -0.1799c3.1271,-1.1514 6.416,-5.5804 9.8667,-13.2872 2.0376,-5.1151 3.5179,-9.4331 4.4408,-12.9542 1.0328,-4.2272 1.872,-8.679 2.5175,-13.3555 0.175,-0.7303 0.3927,-1.1434 0.6533,-1.2393 0.391,-0.144 0.6823,0.0447 0.8742,0.5659 0.6237,1.6938 0.4101,6.8402 -0.6407,15.4388 -0.5391,4.5634 -1.7676,9.5654 -3.6851,15.0063 -1.4202,3.7779 -2.7991,6.764 -4.1367,8.958 -2.9769,4.5731 -6.6479,7.6634 -11.0127,9.2705l-0.5864 0.2159c-2.0847,0.7676 -3.9224,1.0004 -5.5132,0.6984 -2.9075,-0.2612 -5.3655,-1.6125 -7.3742,-4.054 -1.162,-1.3477 -2.0309,-2.8033 -2.6066,-4.3669l-0.3238 -0.8794c-0.7916,-2.1499 -1.2965,-6.0329 -1.5149,-11.649 -0.2663,-5.7464 -0.0254,-10.7178 0.7229,-14.9142 0.2644,-2.0948 0.8718,-4.4639 1.8219,-7.1072 1.1286,-2.5609 2.0443,-4.1927 2.7474,-4.8954 0.991,-1.3267 2.4312,-2.3379 4.3205,-3.0335zm1.8567 25.8382c0.9805,0.4528 1.8942,0.5232 2.7412,0.2114l0 0c1.9544,-0.7196 3.4498,-3.4896 4.4862,-8.31 0.3328,-1.3063 0.4771,-3.0239 0.433,-5.1531 -0.0886,-2.8526 -0.4088,-5.0281 -0.9605,-6.5265l-0.1439 -0.3909c-0.4798,-1.3029 -1.078,-1.8225 -1.7946,-1.5587l-0.0977 0.036c-2.1499,0.7916 -3.6442,6.7794 -4.483,17.9632 -0.0997,1.7384 -0.16,2.9812 -0.1807,3.7286z"/>
   <path id="_118686576" class="fil0" d="M82.7498 90.7878l1.0749 -0.3958c3.5181,-1.2953 6.4477,-1.3753 8.7893,-0.24 0.8501,0.5007 1.4551,1.2397 1.8149,2.217 2.039,5.5375 -2.2306,19.7601 -12.8089,42.668 -5.3508,11.5876 -7.9662,17.5442 -7.8463,17.87 -0.3876,0.9565 -0.5301,1.6748 -0.4273,2.1548l0.1337 0.0617c2.5751,-1.2441 4.9051,-2.2499 6.9898,-3.0174l0.4886 -0.18c9.1859,-3.3822 16.6068,-2.4157 22.263,2.8997 1.577,1.2689 2.6652,2.7177 3.2649,4.3464 0.4317,1.1727 0.3545,1.8669 -0.2319,2.0828 -0.3908,0.1439 -1.872,-0.1615 -4.4432,-0.9163 -4.3232,-1.2934 -9.7747,-0.7287 -16.3547,1.694 -6.5799,2.4227 -13.4345,6.6112 -20.5637,12.5652 -0.4664,0.5417 -0.8299,0.8605 -1.0905,0.9564 -0.8469,0.3119 -1.8618,0.1677 -3.0445,-0.4326 -1.5222,-0.9191 -2.7149,-2.5513 -3.5785,-4.8967l-0.0359 -0.0977c-1.1994,-3.2574 -1.2931,-6.626 -0.2809,-10.1059 1.7704,-6.6442 6.4626,-16.8056 14.0767,-30.4842 4.8876,-8.8277 8.4374,-15.4613 10.6497,-19.9009 2.154,-4.1962 3.0391,-6.8155 2.6553,-7.8579 -0.12,-0.3257 -0.3754,-0.4166 -0.7663,-0.2727l-0.3909 0.1439c-1.1075,0.4078 -5.2874,3.0196 -12.5398,7.8354 -5.6202,3.6229 -9.3424,5.7702 -11.1665,6.4418 -3.7786,1.3913 -7.2276,0.6638 -10.3471,-2.1825 -1.1791,-1.1934 -2.0447,-2.5393 -2.5964,-4.0377l-0.1439 -0.3909c-0.6956,-1.8892 -0.6097,-3.3635 0.258,-4.4228 0.1715,-0.1372 0.3224,-0.2297 0.4526,-0.2777 0.1304,-0.048 1.0373,-0.1969 2.7208,-0.4469 2.7086,-0.4794 5.659,-1.3069 8.8513,-2.4823l0.8795 -0.3238c4.5604,-1.6792 11.653,-4.9195 21.278,-9.7211 0.6275,-0.305 1.2995,-0.5894 2.0162,-0.8533z"/>
   <path id="_118686768" class="fil0" d="M153.236 143.005c0.6543,-0.2766 1.5964,-0.3855 2.8263,-0.3269 0.2854,0.0481 0.4454,0.113 0.48,0.1948 -0.0197,2.1775 0.0178,4.0055 0.1124,5.4839 0.2419,2.9104 0.6091,4.9484 1.1018,6.114l0.0518 0.1227c0.1988,0.4703 0.4102,0.7424 0.6343,0.8164 0.0904,-0.0141 0.1459,-0.0255 0.1663,-0.0341 0.1872,-0.1273 0.338,-0.5405 0.4523,-1.2395 0.3348,-1.6599 0.481,-3.6378 0.4387,-5.9336 -0.0424,-2.2958 -0.2069,-4.2388 -0.4933,-5.8289 -0.1129,-0.7236 -0.0286,-1.2654 0.2531,-1.6254 0.1526,-0.2092 0.4743,-0.4174 0.9651,-0.6248 0.7975,-0.3371 1.4128,-0.3923 1.846,-0.1657 0.0668,0.0441 0.1321,0.1129 0.1957,0.2065 0.2366,0.5027 0.4261,2.3627 0.5689,5.5802 0.1427,3.2175 -0.1428,5.935 -0.8565,8.1527 -0.7137,2.2176 -1.7292,3.5929 -3.0466,4.1255 -1.2883,0.5445 -2.4712,0.1406 -3.5488,-1.2115 -0.1014,-0.1259 -0.1839,-0.2356 -0.2476,-0.3292 -0.1488,0.6172 -0.3311,1.2124 -0.5468,1.7856 -0.5399,1.2887 -1.1677,2.0842 -1.8834,2.3867 -1.3087,0.5531 -2.5062,0.1434 -3.5925,-1.2292 -0.4315,-0.5648 -0.7898,-1.1846 -1.075,-1.8594 -0.9075,-2.1471 -1.4809,-4.9295 -1.7202,-8.3471 -0.0615,-1.6852 0.0328,-2.7736 0.2831,-3.265 0.1054,-0.0927 0.2194,-0.165 0.3421,-0.2169l0.0614 -0.0259c0.6748,-0.2852 1.5835,-0.4162 2.7261,-0.393 0.3349,0.0513 0.5197,0.1178 0.5543,0.1996 -0.0197,2.1775 0.0178,4.0054 0.1124,5.4838 0.2419,2.9105 0.6091,4.9485 1.1018,6.114l0.0518 0.1227c0.1988,0.4703 0.4102,0.7425 0.6343,0.8165 0.0904,-0.0141 0.1459,-0.0255 0.1663,-0.0341 0.3131,-0.2287 0.5969,-1.0115 0.8514,-2.3482 0.1686,-1.0835 0.2269,-2.2289 0.1746,-3.4359 -0.0579,-0.6504 -0.21,-2.0081 -0.4561,-4.0732 -0.1669,-1.5924 -0.2301,-2.9395 -0.1896,-4.0413 0.0166,-0.4167 0.0808,-0.721 0.1926,-0.9129 0.0936,-0.0636 0.1974,-0.1316 0.3115,-0.2039zm13.6625 -5.7382l0.1534 -0.0648c0.8997,-0.3803 2.0155,-0.2493 3.3474,0.393 0.2296,0.144 0.5158,0.3363 0.8585,0.5771 -0.0986,-1.2598 -0.1255,-2.0077 -0.0806,-2.2436 0.0395,-0.3059 0.1512,-0.4978 0.3352,-0.5755l0.1227 -0.0519c0.3477,-0.1469 0.9917,-0.1058 1.9321,0.1234 0.3577,0.1621 0.5798,0.3455 0.6663,0.55l0.0389 0.092c0.1728,0.409 0.2474,1.8115 0.2237,4.2076 -0.0119,2.3669 0.0616,4.5652 0.2205,6.5949 0.0556,0.5308 0.1046,0.9319 0.1469,1.2032l0.0389 0.092c0.0173,0.0409 0.061,0.0586 0.1309,0.0531l0.0307 -0.0129c0.3476,-0.147 0.9454,-1.6408 1.7934,-4.4816 0.8883,-3.3158 1.3548,-5.6339 1.3993,-6.9542 0.0898,-0.4717 0.1977,-0.7583 0.3235,-0.8597l0.092 -0.0389c0.0873,0.0354 0.1482,0.094 0.1828,0.1758l0.0519 0.1227c0.2679,0.6339 0.1566,2.7657 -0.334,6.3954 -0.2294,1.5671 -0.5461,3.0989 -0.9501,4.5952 -0.6291,2.2181 -1.2811,3.4697 -1.9559,3.7549l-0.1227 0.0519c-0.0204,0.0086 -0.0365,0.0275 -0.0483,0.0566 -0.0087,-0.0205 -0.0232,-0.0264 -0.0437,-0.0177l-0.0613 0.0259c-0.7566,0.3198 -1.5477,0.2444 -2.3732,-0.2262 -0.4968,-0.3202 -0.836,-0.6951 -1.0175,-1.1245l-0.086 -0.289c-0.1371,0.5881 -0.3827,1.3186 -0.7369,2.1913 -0.4541,1.0355 -1.039,1.7045 -1.7547,2.0069l-0.2454 0.1038c-1.1451,0.4839 -2.1555,0.2602 -3.0312,-0.6712 -0.2955,-0.3571 -0.5383,-0.7606 -0.7285,-1.2104l-0.0129 -0.0307c-0.605,-1.4314 -0.9733,-3.8426 -1.1049,-7.2334 -0.0082,-1.2739 0.1059,-2.5152 0.3422,-3.7237 0.4615,-1.9305 1.2137,-3.116 2.2566,-3.5568zm1.6683 11.7313c0.1383,0.3272 0.3151,0.5176 0.5306,0.5711l0.1356 -0.0211c0.2045,-0.0865 0.4414,-0.524 0.7106,-1.3126 0.3573,-0.9223 0.6329,-1.81 0.8267,-2.6631 0.5231,-2.583 0.521,-4.4982 -0.0061,-5.7456l-0.0649 -0.1534c-0.2247,-0.5316 -0.5804,-0.8031 -1.0671,-0.8143 -0.0905,0.0142 -0.1664,0.0342 -0.2277,0.0601l-0.0614 0.0259c-0.4703,0.1988 -0.8256,1.0118 -1.066,2.439 -0.1822,1.4507 -0.2323,3.0144 -0.1504,4.691 0.1009,1.3793 0.2076,2.2019 0.3199,2.4677 0.0142,0.0904 0.0542,0.2422 0.1202,0.4553zm10.3404 -17.2766l0.3067 -0.1296c0.1636,-0.0691 0.2929,0.0088 0.388,0.2337l0.0778 0.184c0.0519,0.1227 0.2019,0.4208 0.4502,0.8943 0.1038,0.2455 0.1014,0.4393 -0.0072,0.5816 -0.184,0.0778 -0.3194,0.3278 -0.4061,0.7501 -0.0126,0.1981 0.0156,0.379 0.0848,0.5426 0.216,0.5112 1.0214,1.2192 2.4161,2.1241 1.8624,1.2132 3.0054,2.3209 3.4289,3.3228 0.5991,-2.0608 1.013,-3.7902 1.2416,-5.1883 0.1111,-0.6495 0.2054,-1.4244 0.2828,-2.3248 0.1008,-0.3318 0.2125,-0.5236 0.3352,-0.5755l0 0c0.1022,-0.0432 0.1836,0.0068 0.2441,0.1499l0.0389 0.092c0.2593,0.6135 0.1629,2.6666 -0.2889,6.1595 -0.1972,1.5294 -0.5246,3.15 -0.9821,4.8617 -0.67,2.2354 -1.9048,3.7334 -3.7042,4.4939 -1.2883,0.5445 -2.585,0.4418 -3.8901,-0.3081 -0.6682,-0.4406 -1.1449,-0.9984 -1.4301,-1.6732 -0.3976,-0.9406 -0.3489,-1.9373 0.1462,-2.9901l0.0306 -0.0129c0.1746,0.0708 0.3007,0.1983 0.3785,0.3823 0.0675,0.5017 0.166,0.9059 0.2956,1.2127l0.0778 0.184c0.2939,0.6953 0.8167,1.0769 1.5684,1.1448 0.3499,-0.0274 0.6578,-0.0973 0.9237,-0.2097 0.6748,-0.2852 1.205,-0.7985 1.5906,-1.5398 0.3274,-0.7651 0.3398,-1.5054 0.0374,-2.2211 -0.3544,-0.8384 -1.1739,-1.6369 -2.4585,-2.3954 -1.5134,-1.0716 -2.4688,-2.0777 -2.8664,-3.0184 -0.4148,-0.9815 -0.3393,-2.086 0.2265,-3.3133 0.4234,-0.7092 0.9111,-1.1804 1.4632,-1.4138zm7.7431 -7.683c0.4089,-0.1728 1.0923,-0.1242 2.05,0.1459 0.3404,0.1212 0.5668,0.3147 0.6792,0.5806 0.1382,0.3271 0.2083,1.1772 0.2101,2.5502l1.595 -0.6741c0.0818,-0.0346 0.1357,-0.0212 0.1616,0.0402l0.026 0.0613c0.0689,0.7903 0.0872,1.2044 0.0549,1.2421 -0.0354,0.0873 -0.0838,0.1439 -0.1451,0.1698l-1.687 0.713c0.0228,4.16 0.0821,7.4368 0.178,9.8305 0.0185,0.9562 0.1097,1.942 0.2737,2.9572 0.0519,0.1227 0.1085,0.1711 0.1698,0.1452l0.0614 -0.026c0.3507,-0.1964 0.9131,-1.603 1.6871,-4.2197 0.6237,-2.2881 1.0498,-4.1312 1.2783,-5.5293 0.0875,-0.5913 0.1546,-1.174 0.2012,-1.748 0.0812,-0.4922 0.1934,-0.7686 0.3365,-0.8291 0.1227,-0.0518 0.2272,0.0245 0.3137,0.229 0.1987,0.4703 0.1892,1.7878 -0.0286,3.9526 -0.1966,1.9871 -0.517,3.9662 -0.9612,5.9375 -0.1702,0.7949 -0.4017,1.6158 -0.6945,2.4626 -0.4881,1.4114 -1.0593,2.2553 -1.7137,2.5319l0 0c-0.8997,0.3802 -1.7737,0.2796 -2.622,-0.3018 -0.4096,-0.2848 -0.6965,-0.6215 -0.8607,-1.01l-0.0389 -0.092c-0.1123,-0.2659 -0.177,-0.7326 -0.1941,-1.4002 -0.3655,-6.7385 -0.5779,-10.5772 -0.6374,-11.5163l-1.3496 0.5704c-0.1022,0.0432 -0.1706,0.024 -0.2052,-0.0578 -0.0744,-0.8604 -0.0911,-1.2992 -0.0502,-1.3164 0.044,-0.0669 0.0967,-0.1132 0.1581,-0.1392l1.4109 -0.5963c-0.0874,-1.7465 -0.0861,-3.1691 0.004,-4.2676 0.0213,-0.1777 0.1342,-0.3098 0.3387,-0.3962zm8.5063 1.3939c1.0225,-0.4321 2.1525,-0.5241 3.3901,-0.276 0.4428,0.0782 0.8756,0.3893 1.2984,0.9336 0.2405,0.284 0.4429,0.6203 0.6071,1.0088l0.0519 0.1227c0.5271,1.2474 0.5643,2.8464 0.1114,4.7972 -0.1779,0.6055 -0.3814,1.065 -0.6103,1.3787 -0.4611,0.6769 -0.9779,1.1363 -1.5505,1.3783l-0.184 0.0778c-0.6339,0.2679 -1.3204,0.2688 -2.0595,0.0028l0 0c0.1395,1.2425 0.3346,2.1602 0.5852,2.7532 0.3284,0.7771 0.7871,1.1496 1.3761,1.1176 0.1895,-0.0078 0.3456,-0.0376 0.4683,-0.0895l0.1534 -0.0648c0.9815,-0.4148 1.9654,-1.8791 2.9517,-4.3927 0.5739,-1.6645 0.9817,-3.0661 1.2236,-4.2046 0.2663,-1.3659 0.4673,-2.8005 0.6031,-4.304 0.045,-0.2359 0.1083,-0.3711 0.1901,-0.4057 0.1227,-0.0518 0.2186,0.004 0.2877,0.1676 0.2247,0.5317 0.234,2.1787 0.0277,4.9412 -0.1036,1.4657 -0.4207,3.082 -0.9514,4.8487 -0.3967,1.2282 -0.7923,2.2027 -1.1865,2.9237 -0.8821,1.5055 -2.0081,2.5478 -3.3782,3.1269l-0.184 0.0778c-0.6544,0.2765 -1.2379,0.3785 -1.7506,0.306 -0.9326,-0.0397 -1.7381,-0.4343 -2.4165,-1.184 -0.3914,-0.413 -0.6908,-0.8649 -0.8983,-1.3556l-0.1166 -0.2761c-0.2852,-0.6748 -0.505,-1.9075 -0.6592,-3.6981 -0.1715,-1.8315 -0.1694,-3.4231 0.0065,-4.7748 0.0529,-0.6731 0.2113,-1.439 0.475,-2.2976 0.3219,-0.8351 0.5899,-1.3701 0.8039,-1.6052 0.2966,-0.4386 0.7414,-0.7833 1.3344,-1.0339zm0.9819 8.2254c0.32,0.1299 0.6129,0.1386 0.8788,0.0263l0 0c0.6134,-0.2593 1.0494,-1.1666 1.3079,-2.7219 0.0867,-0.4223 0.1069,-0.9731 0.0608,-1.6525 -0.0712,-0.9099 -0.2062,-1.6 -0.405,-2.0703l-0.0519 -0.1227c-0.1728,-0.409 -0.3717,-0.5659 -0.5966,-0.4708l-0.0307 0.0129c-0.6748,0.2852 -1.062,2.2203 -1.1617,5.8053 -0.0057,0.5568 -0.0062,0.9547 -0.0016,1.1937z"/>
   <path id="_118687488" class="fil1" d="M26.2378 149.809c-7.8857,-42.3185 4.0685,-67.4824 24.8319,-77.7289 12.4549,-6.146 17.6119,-5.2113 29.1739,0.4137l12.3463 6.0062c3.718,1.7954 8.0976,4.0174 12.902,5.5143 4.7807,1.4895 8.5214,8.2378 12.1645,7.3639 3.7994,-0.9116 4.9506,-6.0786 0.9211,-13.4972 -2.0409,-3.7575 -5.2838,-5.1827 -8.7947,-7.5673l-5.5132 -3.7442c-7.5476,-5.1267 -7.6415,-10.991 3.0046,-13.5049 23.6905,-4.3432 42.5902,1.3073 59.3771,11.3642 1.6101,0.9645 2.969,2.034 4.8284,2.4365 4.4874,0.9714 7.3576,-1.5144 5.9216,-4.9082 -0.8146,-1.9276 -2.5381,-3.1712 -4.0774,-4.492 -39.4902,-33.8926 -93.6498,-45.8754 -140.603,1.1001 -22.2836,27.7231 -26.4236,57.8734 -6.483,91.2438z"/>
   <path id="_118687584" class="fil2" d="M30.5924 124.172c8.2707,42.2449 28.6597,61.2295 51.7382,63.0997 13.8433,1.1216 18.2925,-1.6484 26.9665,-11.1397l9.2624 -10.1347c2.7943,-3.0396 6.0462,-6.7196 9.9604,-9.8822 3.8949,-3.147 4.8843,-10.7991 8.593,-11.3299 3.8679,-0.5532 6.8429,3.8254 5.8321,12.207 -0.512,4.2453 -3.001,6.7656 -5.3856,10.2766l-3.7446 5.513c-5.1259,7.548 -3.0513,13.0339 7.7717,11.4459 23.623,-4.6963 39.1085,-16.9163 51.0054,-32.4535 1.1412,-1.49 2.0101,-2.9852 3.5901,-4.0448 3.8132,-2.5573 7.3977,-1.3048 7.314,2.3795 -0.0466,2.0921 -1.1903,3.8834 -2.1343,5.6787 -24.2139,46.0637 -70.1413,77.1688 -131.105,50.8116 -30.9343,-17.5555 -45.8978,-44.056 -39.6639,-82.4272z"/>
   <path id="_118686504" class="fil1" d="M144.865 57.613l11.021 4.3609c1.8954,0.7498 2.949,1.2763 4.4389,2.6914 1.6793,1.5949 3.1795,3.3396 4.3614,5.5359 0.4808,0.8941 0.8849,1.229 0.0535,1.9866 -0.9154,0.8341 -2.6354,1.5312 -4.722,1.3836 -1.8582,-0.1316 -3.1039,-1.004 -4.5046,-2.1722 -4.2366,-3.5339 -8.0253,-7.7903 -11.1388,-12.6177 -1.09,-1.6898 -1.6698,-2.0229 0.4906,-1.1685z"/>
   <path id="_118686792" class="fil1" d="M130.543 55.474c3.3834,0.363 6.5411,1.151 9.3927,2.5317 1.7658,0.855 2.4937,1.5454 3.6694,3.0657l3.5042 4.5301c0.698,0.9022 1.3082,1.6419 1.4202,2.838 0.2452,2.6181 -3.0575,3.0929 -7.177,0.9322 -1.5242,-0.7993 -2.2938,-1.824 -3.4097,-3.1208l-8.1631 -9.4856c-1.4568,-1.6929 -1.475,-1.5311 0.7633,-1.2913z"/>
   <path id="_118686720" class="fil1" d="M119.575 55.1764l5.1637 0.342c1.19,0.056 2.236,0.4132 2.9971,1.3665l4.7629 5.8671c0.6028,0.7426 1.0781,1.3107 1.336,2.2571 0.7108,2.6026 -1.6517,3.1809 -4.2427,2.5366 -2.2474,-0.5578 -4.1128,-2.1287 -5.8418,-3.6055 -2.4909,-2.128 -4.4279,-4.4921 -5.6005,-7.1822 -0.9068,-2.0799 -0.6008,-1.7155 1.4253,-1.5816z"/>
   <path id="_118686888" class="fil3" d="M69.9634 223.51l-1.5921 5.4257 -2.8906 0 2.8751 -5.4257 1.6076 0zm-3.3955 0l-1.6076 5.4257 -2.8906 0 2.8906 -5.4257 1.6076 0zm10.8513 2.4372l-0.3838 2.4372c0.0412,0.0103 0.0824,0.0154 0.1288,0.018 0.0438,0.0026 0.1004,0.0052 0.1648,0.0052 0.438,0 0.7678,-0.1314 0.9868,-0.3942 0.2189,-0.2602 0.3272,-0.6544 0.3272,-1.1825 0,-0.2937 -0.0902,-0.5127 -0.2706,-0.6621 -0.1829,-0.1469 -0.4457,-0.2216 -0.7935,-0.2216l-0.1597 0zm-4.4363 8.5816l1.7518 -11.0188 2.6407 0c1.4737,0 2.5377,0.2422 3.192,0.7291 0.6544,0.4844 0.9816,1.2701 0.9816,2.3573 0,1.3732 -0.389,2.4295 -1.1671,3.1663 -0.7754,0.7368 -1.8884,1.1052 -3.3311,1.1052 -0.0464,0 -0.1159,-0.0026 -0.2087,-0.0077 -0.0927,-0.0052 -0.1623,-0.0078 -0.2061,-0.0078l-0.5745 3.6764 -3.0786 0zm12.191 -5.5313c-0.2808,0 -0.523,0.237 -0.7265,0.7085 -0.2036,0.474 -0.3066,1.0408 -0.3066,1.7003 0,0.2963 0.0438,0.523 0.1314,0.6776 0.0876,0.1572 0.2164,0.2344 0.3813,0.2344 0.2782,0 0.5152,-0.2395 0.7162,-0.7162 0.2035,-0.4791 0.304,-1.0511 0.304,-1.7209 0,-0.2937 -0.0412,-0.5127 -0.1263,-0.6621 -0.0824,-0.1469 -0.2061,-0.2216 -0.3735,-0.2216zm-0.1211 5.5313l0.1211 -0.8527c-0.3375,0.3735 -0.6647,0.644 -0.9842,0.8141 -0.3194,0.1726 -0.6543,0.2576 -1.0073,0.2576 -0.608,0 -1.082,-0.237 -1.4221,-0.7085 -0.3401,-0.474 -0.5101,-1.1361 -0.5101,-1.9863 0,-1.5587 0.3092,-2.8623 0.9275,-3.9057 0.6208,-1.0433 1.386,-1.5663 2.3032,-1.5663 0.3555,0 0.6672,0.085 0.9326,0.2524 0.2628,0.1701 0.5023,0.438 0.7188,0.8038l0.1442 -0.8373 2.7773 0 -1.2238 7.7289 -2.7772 0zm3.8051 0l1.2237 -7.7289 2.6407 0 -0.1726 1.0795c0.3118,-0.3967 0.657,-0.7033 1.0408,-0.9171 0.3813,-0.2139 0.8013,-0.3401 1.2599,-0.3813l-0.4303 2.7257 -0.0592 0c-0.6853,0 -1.1851,0.1288 -1.502,0.3838 -0.3169,0.2577 -0.5282,0.7214 -0.6338,1.3887l-0.5358 3.4496 -2.8314 0zm9.7075 -5.5313c-0.2808,0 -0.523,0.237 -0.7265,0.7085 -0.2036,0.474 -0.3066,1.0408 -0.3066,1.7003 0,0.2963 0.0438,0.523 0.1314,0.6776 0.0876,0.1572 0.2164,0.2344 0.3813,0.2344 0.2782,0 0.5152,-0.2395 0.7162,-0.7162 0.2035,-0.4791 0.304,-1.0511 0.304,-1.7209 0,-0.2937 -0.0412,-0.5127 -0.1263,-0.6621 -0.0824,-0.1469 -0.2061,-0.2216 -0.3735,-0.2216zm-0.1211 5.5313l0.1211 -0.8527c-0.3375,0.3735 -0.6647,0.644 -0.9842,0.8141 -0.3194,0.1726 -0.6543,0.2576 -1.0073,0.2576 -0.608,0 -1.082,-0.237 -1.4221,-0.7085 -0.3401,-0.474 -0.5101,-1.1361 -0.5101,-1.9863 0,-1.5587 0.3092,-2.8623 0.9275,-3.9057 0.6208,-1.0433 1.386,-1.5663 2.3032,-1.5663 0.3555,0 0.6672,0.085 0.9326,0.2524 0.2628,0.1701 0.5023,0.438 0.7188,0.8038l0.1442 -0.8373 2.7773 0 -1.2238 7.7289 -2.7772 0zm14.1308 2.6561l-2.7772 0 0.5359 -3.4934c-0.3401,0.3761 -0.6699,0.6492 -0.9867,0.8193 -0.3169,0.1674 -0.6518,0.2524 -1.0048,0.2524 -0.6131,0 -1.0898,-0.2344 -1.4272,-0.7059 -0.3375,-0.4714 -0.505,-1.1335 -0.505,-1.9889 0,-1.5741 0.3092,-2.8828 0.9249,-3.9262 0.6157,-1.0408 1.3834,-1.5612 2.3058,-1.5612 0.3529,0 0.6595,0.085 0.9248,0.2576 0.2628,0.17 0.505,0.4431 0.7266,0.8141l0.1442 -0.8528 2.7773 0 -1.6386 10.385zm-3.2744 -5.7348c0,0.3066 0.0464,0.5359 0.1391,0.6853 0.0928,0.152 0.2345,0.2267 0.4199,0.2267 0.2809,0 0.5179,-0.237 0.7137,-0.7084 0.1932,-0.4741 0.2885,-1.064 0.2885,-1.7751 0,-0.3117 -0.0438,-0.5384 -0.1314,-0.6827 -0.0876,-0.1417 -0.2241,-0.2138 -0.4122,-0.2138 -0.2808,0 -0.5204,0.237 -0.7188,0.7136 -0.1983,0.474 -0.2988,1.0588 -0.2988,1.7544zm5.8275 -4.6502l2.8004 0 -0.7703 4.8976c-0.0051,0.0154 -0.0103,0.0335 -0.0128,0.0541 -0.0026,0.0206 -0.0026,0.0515 -0.0026,0.0901 0,0.1417 0.0412,0.2499 0.1211,0.3298 0.0798,0.0773 0.1932,0.1159 0.34,0.1159 0.1649,0 0.3066,-0.0541 0.4251,-0.1597 0.1185,-0.1056 0.1932,-0.2473 0.2242,-0.4302l0.7754 -4.8976 2.7927 0 -0.7394 4.6348c-0.17,1.1026 -0.5796,1.9296 -1.2263,2.4835 -0.6466,0.5539 -1.5252,0.8296 -2.6381,0.8296 -0.912,0 -1.6231,-0.2087 -2.1357,-0.6235 -0.5127,-0.4148 -0.7704,-0.9867 -0.7704,-1.7158 0,-0.1468 0.0078,-0.2988 0.0232,-0.4611 0.0155,-0.1598 0.0361,-0.3324 0.067,-0.5127l0.7265 -4.6348zm13.4019 5.0264c-0.0747,0.9223 -0.4071,1.6411 -0.9945,2.1589 -0.5899,0.5178 -1.3705,0.778 -2.3392,0.778 -1.0589,0 -1.8627,-0.2885 -2.4166,-0.8682 -0.5539,-0.5796 -0.8295,-1.4195 -0.8295,-2.5221 0,-1.4531 0.3503,-2.615 1.0485,-3.4858 0.7008,-0.8707 1.6385,-1.3061 2.8159,-1.3061 0.9506,0 1.7029,0.2524 2.2594,0.7574 0.5565,0.5075 0.8347,1.1928 0.8347,2.0584 0,0.2216 -0.0103,0.4612 -0.0309,0.7214 -0.0206,0.2576 -0.0515,0.5488 -0.0979,0.8708l-4.0912 0c-0.0283,0.2422 -0.0515,0.4328 -0.0644,0.5745 -0.0128,0.1391 -0.018,0.2525 -0.018,0.3375 0,0.2679 0.0593,0.4663 0.1803,0.5925 0.1211,0.1289 0.304,0.1933 0.5514,0.1933 0.2628,0 0.4637,-0.0722 0.6054,-0.2165 0.1391,-0.1416 0.2216,-0.3581 0.2396,-0.644l2.347 0zm-3.6455 -2.1358l1.654 0c0.0155,-0.1648 0.0232,-0.2859 0.0258,-0.3581 0.0026,-0.0747 0.0051,-0.1391 0.0051,-0.2009 0,-0.2473 -0.0541,-0.4328 -0.1623,-0.5616 -0.1082,-0.1289 -0.2705,-0.1933 -0.4869,-0.1933 -0.2782,0 -0.4972,0.1031 -0.6569,0.3092 -0.1623,0.2061 -0.286,0.541 -0.3788,1.0047zm1.6308 -3.9391l-1.1928 0 0.8991 -2.3547 1.9606 0 -1.6669 2.3547zm6.3326 8.7774l1.9013 -12.0235 2.7772 0 -0.7986 5.1474c0.322,-0.3607 0.6415,-0.6286 0.9609,-0.7986 0.3195,-0.1727 0.6595,-0.2577 1.0151,-0.2577 0.6131,0 1.0923,0.2345 1.435,0.7059 0.3426,0.4715 0.5126,1.1284 0.5126,1.9735 0,1.5586 -0.3091,2.8596 -0.9249,3.8979 -0.6157,1.0382 -1.3834,1.5586 -2.3057,1.5586 -0.3556,0 -0.6673,-0.085 -0.9326,-0.2524 -0.2628,-0.1701 -0.5024,-0.438 -0.7188,-0.8038l-0.1366 0.8527 -2.7849 0zm3.3517 -3.0787c0,0.3066 0.0464,0.5359 0.1391,0.6853 0.0928,0.152 0.2319,0.2267 0.4174,0.2267 0.2885,0 0.5281,-0.237 0.7188,-0.7084 0.1906,-0.4741 0.2859,-1.064 0.2859,-1.7751 0,-0.3066 -0.0463,-0.5307 -0.1365,-0.6776 -0.0902,-0.1468 -0.2319,-0.2189 -0.4225,-0.2189 -0.2808,0 -0.5178,0.237 -0.7136,0.7084 -0.1933,0.4741 -0.2886,1.0589 -0.2886,1.7596zm7.7211 0.1289c0,0.2808 0.0412,0.492 0.1211,0.6337 0.0799,0.1417 0.1984,0.2113 0.3555,0.2113 0.2654,0 0.4998,-0.2628 0.7008,-0.7884 0.2009,-0.5255 0.3014,-1.149 0.3014,-1.8703 0,-0.286 -0.0412,-0.4998 -0.1211,-0.6364 -0.0798,-0.1391 -0.2035,-0.2087 -0.3684,-0.2087 -0.2628,0 -0.4921,0.2654 -0.6904,0.7961 -0.1984,0.5307 -0.2989,1.1516 -0.2989,1.8627zm0.5359 3.1842c-1.0821,0 -1.9065,-0.2859 -2.4707,-0.8604 -0.5668,-0.5745 -0.8501,-1.4118 -0.8501,-2.5145 0,-1.4582 0.3375,-2.6252 1.015,-3.4986 0.6776,-0.8733 1.587,-1.3087 2.7283,-1.3087 1.082,0 1.9039,0.2859 2.4629,0.8579 0.5617,0.5693 0.8425,1.4092 0.8425,2.517 0,1.4633 -0.3349,2.6304 -1.0074,3.5012 -0.6724,0.8707 -1.5792,1.3061 -2.7205,1.3061zm4.3101 -0.2344l0.8373 -5.284 -0.9429 0 0.3839 -2.4449 0.9455 0 0.3529 -2.2722 2.8159 0 -0.3555 2.2722 1.0047 0 -0.3839 2.4449 -1.0047 0 -0.8528 5.284 -2.8004 0zm8.6409 -5.5313c-0.2808,0 -0.523,0.237 -0.7265,0.7085 -0.2036,0.474 -0.3066,1.0408 -0.3066,1.7003 0,0.2963 0.0438,0.523 0.1314,0.6776 0.0876,0.1572 0.2164,0.2344 0.3813,0.2344 0.2782,0 0.5152,-0.2395 0.7162,-0.7162 0.2035,-0.4791 0.304,-1.0511 0.304,-1.7209 0,-0.2937 -0.0412,-0.5127 -0.1263,-0.6621 -0.0824,-0.1469 -0.2061,-0.2216 -0.3735,-0.2216zm-0.1211 5.5313l0.1211 -0.8527c-0.3375,0.3735 -0.6647,0.644 -0.9842,0.8141 -0.3194,0.1726 -0.6543,0.2576 -1.0073,0.2576 -0.608,0 -1.082,-0.237 -1.4221,-0.7085 -0.3401,-0.474 -0.5101,-1.1361 -0.5101,-1.9863 0,-1.5587 0.3092,-2.8623 0.9275,-3.9057 0.6208,-1.0433 1.386,-1.5663 2.3032,-1.5663 0.3555,0 0.6672,0.085 0.9326,0.2524 0.2628,0.1701 0.5023,0.438 0.7188,0.8038l0.1442 -0.8373 2.7773 0 -1.2238 7.7289 -2.7772 0zm3.8051 0l1.2237 -7.7289 2.6407 0 -0.1726 1.0795c0.3118,-0.3967 0.657,-0.7033 1.0408,-0.9171 0.3813,-0.2139 0.8013,-0.3401 1.2599,-0.3813l-0.4303 2.7257 -0.0592 0c-0.6853,0 -1.1851,0.1288 -1.502,0.3838 -0.3169,0.2577 -0.5282,0.7214 -0.6338,1.3887l-0.5358 3.4496 -2.8314 0zm5.5339 0l1.9013 -12.0235 2.8004 0 -1.9013 12.0235 -2.8004 0zm7.1028 -2.9498c0,0.2808 0.0412,0.492 0.1211,0.6337 0.0799,0.1417 0.1984,0.2113 0.3555,0.2113 0.2654,0 0.4998,-0.2628 0.7008,-0.7884 0.2009,-0.5255 0.3014,-1.149 0.3014,-1.8703 0,-0.286 -0.0412,-0.4998 -0.1211,-0.6364 -0.0798,-0.1391 -0.2035,-0.2087 -0.3684,-0.2087 -0.2628,0 -0.4921,0.2654 -0.6904,0.7961 -0.1984,0.5307 -0.2989,1.1516 -0.2989,1.8627zm0.5359 3.1842c-1.0821,0 -1.9065,-0.2859 -2.4707,-0.8604 -0.5668,-0.5745 -0.8501,-1.4118 -0.8501,-2.5145 0,-1.4582 0.3375,-2.6252 1.015,-3.4986 0.6776,-0.8733 1.587,-1.3087 2.7283,-1.3087 1.082,0 1.9039,0.2859 2.4629,0.8579 0.5617,0.5693 0.8425,1.4092 0.8425,2.517 0,1.4633 -0.3349,2.6304 -1.0074,3.5012 -0.6724,0.8707 -1.5792,1.3061 -2.7205,1.3061zm2.8004 2.3316l1.6076 -5.4257 2.8906 0 -2.8751 5.4257 -1.6231 0z"/>
   <path id="_118683768" class="fil3" d="M96.0262 247.14c0.2968,0.2499 0.6093,0.4419 0.9351,0.5758 0.3281,0.1361 0.6406,0.2031 0.9419,0.2031 0.2655,0 0.4776,-0.0737 0.636,-0.2187 0.1563,-0.1473 0.2344,-0.346 0.2344,-0.5982 0,-0.2187 -0.0648,-0.4352 -0.1964,-0.6516 -0.1295,-0.2165 -0.3839,-0.5022 -0.7588,-0.8593 -0.4531,-0.4419 -0.7656,-0.828 -0.9352,-1.165 -0.1696,-0.3348 -0.2544,-0.7052 -0.2544,-1.1114 0,-0.9106 0.2879,-1.6337 0.8659,-2.1716 0.5781,-0.5356 1.3614,-0.8034 2.3501,-0.8034 0.4018,0 0.7834,0.0446 1.1449,0.1339 0.3616,0.0893 0.7298,0.2276 1.1048,0.4151l-0.3794 2.3278c-0.2879,-0.2009 -0.5669,-0.3526 -0.8392,-0.4575 -0.2723,-0.1049 -0.5334,-0.1563 -0.7833,-0.1563 -0.221,0 -0.3973,0.0581 -0.5267,0.1741 -0.1273,0.1138 -0.192,0.2723 -0.192,0.4732 0,0.27 0.2455,0.6494 0.7387,1.1382 0.0625,0.0602 0.1094,0.1071 0.1451,0.1428 0.4977,0.4888 0.8235,0.9061 0.9798,1.2543 0.1584,0.3504 0.2365,0.7521 0.2365,1.2096 0,1.0199 -0.3146,1.8256 -0.944,2.4126 -0.6316,0.5892 -1.4931,0.8838 -2.5867,0.8838 -0.4664,0 -0.9083,-0.0558 -1.3257,-0.1674 -0.4151,-0.1094 -0.7655,-0.2634 -1.0489,-0.4598l0.4575 -2.5241zm5.6353 2.9348l1.0601 -6.6954 2.426 0 -1.0601 6.6954 -2.426 0zm3.9637 -9.2397c0,0.4754 -0.1428,0.8705 -0.4285,1.1874 -0.2857,0.3146 -0.6472,0.4731 -1.0824,0.4731 -0.3348,0 -0.6049,-0.1094 -0.8079,-0.3258 -0.2031,-0.2188 -0.3036,-0.5067 -0.3036,-0.8637 0,-0.4799 0.1429,-0.8794 0.4308,-1.1963 0.2879,-0.3191 0.6472,-0.4776 1.0802,-0.4776 0.3392,0 0.6092,0.1094 0.8101,0.3259 0.2009,0.2187 0.3013,0.511 0.3013,0.877zm2.3657 11.5273l1.4194 -8.983 2.176 0 -0.1049 0.6941c0.3147,-0.2968 0.6249,-0.5178 0.9285,-0.6651 0.3057,-0.1451 0.6182,-0.2187 0.9351,-0.2187 0.5758,0 1.0155,0.2076 1.3212,0.6204 0.3058,0.4152 0.4575,1.011 0.4575,1.7922 0,1.3123 -0.2656,2.417 -0.7945,3.3142 -0.5289,0.8994 -1.1761,1.348 -1.9394,1.348 -0.3259,0 -0.6227,-0.0536 -0.8883,-0.1629 -0.2656,-0.1094 -0.491,-0.2701 -0.674,-0.4843l-0.4307 2.7451 -2.4059 0zm3.2763 -4.9546c0,0.2656 0.0402,0.4642 0.1205,0.5937 0.0803,0.1316 0.2009,0.1964 0.3616,0.1964 0.2499,0 0.4575,-0.2054 0.6226,-0.6138 0.1652,-0.4106 0.2478,-0.9217 0.2478,-1.5377 0,-0.2656 -0.0402,-0.4597 -0.1183,-0.587 -0.0781,-0.1272 -0.2009,-0.1897 -0.366,-0.1897 -0.2433,0 -0.4486,0.2054 -0.6183,0.6138 -0.1673,0.4106 -0.2499,0.9172 -0.2499,1.5243zm4.9568 -4.0284l2.426 0 -0.6674 4.2427c-0.0044,0.0133 -0.0089,0.029 -0.0111,0.0468 -0.0022,0.0179 -0.0022,0.0447 -0.0022,0.0781 0,0.1228 0.0357,0.2165 0.1049,0.2857 0.0691,0.067 0.1673,0.1004 0.2945,0.1004 0.1429,0 0.2656,-0.0468 0.3683,-0.1383 0.1027,-0.0915 0.1674,-0.2143 0.1942,-0.3727l0.6717 -4.2427 2.4193 0 -0.6405 4.015c-0.1473,0.9552 -0.5022,1.6716 -1.0624,2.1515 -0.5601,0.4798 -1.3212,0.7186 -2.2853,0.7186 -0.7901,0 -1.4061,-0.1808 -1.8502,-0.5401 -0.4441,-0.3593 -0.6673,-0.8548 -0.6673,-1.4864 0,-0.1272 0.0067,-0.2589 0.0201,-0.3995 0.0134,-0.1383 0.0312,-0.2879 0.058,-0.4441l0.6294 -4.015zm11.6098 4.3542c-0.0647,0.799 -0.3526,1.4217 -0.8615,1.8703 -0.511,0.4486 -1.1873,0.674 -2.0264,0.674 -0.9173,0 -1.6136,-0.25 -2.0935,-0.7521 -0.4798,-0.5022 -0.7186,-1.2297 -0.7186,-2.185 0,-1.2587 0.3035,-2.2652 0.9083,-3.0196 0.6071,-0.7543 1.4195,-1.1315 2.4394,-1.1315 0.8235,0 1.4752,0.2187 1.9573,0.6561 0.482,0.4397 0.7231,1.0334 0.7231,1.7833 0,0.1919 -0.0089,0.3994 -0.0268,0.6249 -0.0179,0.2231 -0.0446,0.4753 -0.0848,0.7543l-3.5441 0c-0.0246,0.2098 -0.0446,0.3749 -0.0558,0.4977 -0.0112,0.1205 -0.0156,0.2187 -0.0156,0.2924 0,0.2321 0.0513,0.4039 0.1562,0.5133 0.1049,0.1116 0.2634,0.1674 0.4776,0.1674 0.2277,0 0.4017,-0.0625 0.5245,-0.1875 0.1205,-0.1228 0.1919,-0.3102 0.2075,-0.558l2.0332 0zm-3.158 -1.8501l1.4328 0c0.0134,-0.1429 0.0201,-0.2478 0.0223,-0.3102 0.0023,-0.0648 0.0045,-0.1206 0.0045,-0.1741 0,-0.2143 -0.0469,-0.375 -0.1406,-0.4866 -0.0937,-0.1115 -0.2343,-0.1673 -0.4218,-0.1673 -0.241,0 -0.4307,0.0892 -0.5691,0.2678 -0.1406,0.1785 -0.2477,0.4687 -0.3281,0.8704zm7.7934 0.1495c0,-0.2656 -0.0401,-0.4642 -0.1205,-0.5936 -0.0803,-0.1317 -0.2008,-0.1964 -0.3615,-0.1964 -0.2411,0 -0.4464,0.2053 -0.616,0.6182 -0.1696,0.4106 -0.2544,0.9217 -0.2544,1.531 0,0.2723 0.0379,0.4687 0.1138,0.5936 0.0759,0.1228 0.1964,0.1853 0.3571,0.1853 0.2432,0 0.453,-0.2076 0.6249,-0.6205 0.1718,-0.4151 0.2566,-0.9195 0.2566,-1.5176zm-0.5735 4.0418l0.1049 -0.7387c-0.2924,0.3214 -0.5736,0.5557 -0.8437,0.6985 -0.2722,0.1451 -0.5601,0.2165 -0.8704,0.2165 -0.5311,0 -0.9462,-0.2031 -1.2431,-0.607 -0.2968,-0.4062 -0.4441,-0.9776 -0.4441,-1.7141 0,-1.3502 0.2678,-2.4773 0.8034,-3.3767 0.5379,-0.8994 1.2008,-1.3502 1.9953,-1.3502 0.3102,0 0.578,0.0736 0.8079,0.2187 0.2276,0.1473 0.4374,0.3794 0.6249,0.6963l0.7119 -4.4591 2.4059 0 -1.6471 10.4158 -2.4058 0zm9.2753 -2.3412c-0.0647,0.799 -0.3526,1.4217 -0.8615,1.8703 -0.511,0.4486 -1.1873,0.674 -2.0264,0.674 -0.9173,0 -1.6136,-0.25 -2.0935,-0.7521 -0.4798,-0.5022 -0.7186,-1.2297 -0.7186,-2.185 0,-1.2587 0.3035,-2.2652 0.9083,-3.0196 0.6071,-0.7543 1.4195,-1.1315 2.4394,-1.1315 0.8235,0 1.4752,0.2187 1.9573,0.6561 0.482,0.4397 0.7231,1.0334 0.7231,1.7833 0,0.1919 -0.0089,0.3994 -0.0268,0.6249 -0.0179,0.2231 -0.0446,0.4753 -0.0848,0.7543l-3.5441 0c-0.0246,0.2098 -0.0446,0.3749 -0.0558,0.4977 -0.0112,0.1205 -0.0156,0.2187 -0.0156,0.2924 0,0.2321 0.0513,0.4039 0.1562,0.5133 0.1049,0.1116 0.2634,0.1674 0.4776,0.1674 0.2277,0 0.4017,-0.0625 0.5245,-0.1875 0.1205,-0.1228 0.1919,-0.3102 0.2075,-0.558l2.0332 0zm-3.158 -1.8501l1.4328 0c0.0134,-0.1429 0.0201,-0.2478 0.0223,-0.3102 0.0023,-0.0648 0.0045,-0.1206 0.0045,-0.1741 0,-0.2143 -0.0469,-0.375 -0.1406,-0.4866 -0.0937,-0.1115 -0.2343,-0.1673 -0.4218,-0.1673 -0.241,0 -0.4307,0.0892 -0.5691,0.2678 -0.1406,0.1785 -0.2477,0.4687 -0.3281,0.8704zm4.2449 1.8368c0.2566,0.2343 0.5088,0.4128 0.7566,0.5356 0.2499,0.1227 0.482,0.183 0.7007,0.183 0.1607,0 0.2879,-0.0357 0.3817,-0.1071 0.0937,-0.0737 0.1406,-0.1697 0.1406,-0.2924 0,-0.1986 -0.1897,-0.4173 -0.5691,-0.6539 -0.0781,-0.0469 -0.1362,-0.0848 -0.1763,-0.1094 -0.4486,-0.2923 -0.7678,-0.578 -0.9597,-0.857 -0.1919,-0.279 -0.2879,-0.6003 -0.2879,-0.9686 0,-0.6651 0.2321,-1.2096 0.6985,-1.6292 0.4665,-0.4218 1.078,-0.6316 1.8323,-0.6316 0.3304,0 0.6629,0.0424 0.9932,0.125 0.3303,0.0826 0.6383,0.2008 0.9217,0.3593l-0.4128 1.7765c-0.2299,-0.1785 -0.4442,-0.3102 -0.6428,-0.3972 -0.1986,-0.0871 -0.3883,-0.1317 -0.5669,-0.1317 -0.1607,0 -0.2901,0.0379 -0.3883,0.1116 -0.0982,0.0736 -0.1473,0.1696 -0.1473,0.2879 0,0.1428 0.1339,0.3057 0.3995,0.4887 0.1004,0.0692 0.1763,0.125 0.2276,0.163 0.5669,0.4195 0.9307,0.7632 1.0891,1.0333 0.1585,0.2723 0.2388,0.5869 0.2388,0.9485 0,0.6896 -0.2388,1.2453 -0.7164,1.6649 -0.4776,0.4218 -1.1114,0.6316 -1.9059,0.6316 -0.3928,0 -0.7879,-0.0625 -1.1851,-0.1875 -0.3995,-0.1227 -0.7722,-0.299 -1.1159,-0.5267l0.6941 -1.8166zm12.0695 -1.6873c0,-0.2656 -0.0401,-0.4642 -0.1205,-0.5936 -0.0803,-0.1317 -0.2008,-0.1964 -0.3615,-0.1964 -0.2411,0 -0.4464,0.2053 -0.616,0.6182 -0.1696,0.4106 -0.2544,0.9217 -0.2544,1.531 0,0.2723 0.0379,0.4687 0.1138,0.5936 0.0759,0.1228 0.1964,0.1853 0.3571,0.1853 0.2432,0 0.453,-0.2076 0.6249,-0.6205 0.1718,-0.4151 0.2566,-0.9195 0.2566,-1.5176zm-0.5735 4.0418l0.1049 -0.7387c-0.2924,0.3214 -0.5736,0.5557 -0.8437,0.6985 -0.2722,0.1451 -0.5601,0.2165 -0.8704,0.2165 -0.5311,0 -0.9462,-0.2031 -1.2431,-0.607 -0.2968,-0.4062 -0.4441,-0.9776 -0.4441,-1.7141 0,-1.3502 0.2678,-2.4773 0.8034,-3.3767 0.5379,-0.8994 1.2008,-1.3502 1.9953,-1.3502 0.3102,0 0.578,0.0736 0.8079,0.2187 0.2276,0.1473 0.4374,0.3794 0.6249,0.6963l0.7119 -4.4591 2.4059 0 -1.6471 10.4158 -2.4058 0zm5.9879 -2.5554c0,0.2433 0.0357,0.4263 0.1049,0.549 0.0691,0.1228 0.1718,0.183 0.3079,0.183 0.2299,0 0.433,-0.2276 0.6071,-0.6829 0.1741,-0.4553 0.2611,-0.9954 0.2611,-1.6203 0,-0.2477 -0.0357,-0.433 -0.1049,-0.5513 -0.0692,-0.1205 -0.1763,-0.1807 -0.3191,-0.1807 -0.2277,0 -0.4263,0.2298 -0.5981,0.6896 -0.1719,0.4597 -0.2589,0.9976 -0.2589,1.6136zm0.4642 2.7585c-0.9374,0 -1.6516,-0.2477 -2.1403,-0.7454 -0.491,-0.4977 -0.7365,-1.2231 -0.7365,-2.1783 0,-1.2632 0.2924,-2.2742 0.8793,-3.0307 0.587,-0.7566 1.3748,-1.1338 2.3635,-1.1338 0.9374,0 1.6493,0.2477 2.1336,0.7432 0.4865,0.4932 0.7298,1.2208 0.7298,2.1805 0,1.2676 -0.2901,2.2786 -0.8726,3.033 -0.5825,0.7543 -1.3681,1.1315 -2.3568,1.1315zm3.3343 -0.2031l1.0601 -6.6954 2.1827 0 -0.1116 0.6919c0.2344,-0.2656 0.4977,-0.4665 0.7879,-0.6049 0.2901,-0.1361 0.5981,-0.2053 0.9239,-0.2053 0.52,0 0.9218,0.1317 1.2074,0.395 0.2857,0.2634 0.4285,0.6361 0.4285,1.1159 0,0.1139 -0.0067,0.2411 -0.0201,0.3861 -0.0134,0.1429 -0.0357,0.3259 -0.0714,0.5491l-0.6874 4.3676 -2.4192 0 0.6271 -3.9503c0,-0.0178 0.0022,-0.0424 0.0067,-0.0781 0.0134,-0.087 0.0201,-0.1361 0.0201,-0.1495 0,-0.1272 -0.0357,-0.2254 -0.1049,-0.2946 -0.0692,-0.0692 -0.1674,-0.1049 -0.2946,-0.1049 -0.1295,0 -0.2366,0.0558 -0.3236,0.1674 -0.0848,0.1116 -0.1406,0.2722 -0.1719,0.4865l-0.6271 3.9235 -2.4126 0zm10.2841 -4.7917c-0.2432,0 -0.453,0.2054 -0.6293,0.6138 -0.1763,0.4106 -0.2656,0.9016 -0.2656,1.473 0,0.2566 0.0379,0.453 0.1138,0.5869 0.0759,0.1362 0.1875,0.2031 0.3303,0.2031 0.241,0 0.4464,-0.2075 0.6204,-0.6204 0.1764,-0.4151 0.2634,-0.9106 0.2634,-1.4909 0,-0.2544 -0.0357,-0.4441 -0.1094,-0.5735 -0.0714,-0.1273 -0.1785,-0.192 -0.3236,-0.192zm-0.1049 4.7917l0.1049 -0.7387c-0.2923,0.3236 -0.5758,0.5579 -0.8525,0.7052 -0.2768,0.1496 -0.5669,0.2232 -0.8727,0.2232 -0.5267,0 -0.9373,-0.2053 -1.2319,-0.6137 -0.2946,-0.4107 -0.4419,-0.9843 -0.4419,-1.7208 0,-1.3502 0.2678,-2.4795 0.8034,-3.3834 0.5379,-0.9038 1.2008,-1.3569 1.9953,-1.3569 0.308,0 0.578,0.0736 0.8079,0.2187 0.2276,0.1473 0.4352,0.3794 0.6227,0.6963l0.1249 -0.7253 2.4059 0 -1.0601 6.6954 -2.4059 0zm3.2964 0l1.0601 -6.6954 2.2876 0 -0.1495 0.9351c0.27,-0.3437 0.5691,-0.6093 0.9016,-0.7945 0.3303,-0.1852 0.6941,-0.2946 1.0914,-0.3303l-0.3727 2.3612 -0.0514 0c-0.5936,0 -1.0266,0.1116 -1.3011,0.3326 -0.2745,0.2232 -0.4575,0.6249 -0.549,1.2029l-0.4642 2.9884 -2.4528 0zm4.7939 0l1.6471 -10.4158 2.426 0 -1.6471 10.4158 -2.426 0zm6.1531 -2.5554c0,0.2433 0.0357,0.4263 0.1049,0.549 0.0691,0.1228 0.1718,0.183 0.3079,0.183 0.2299,0 0.433,-0.2276 0.6071,-0.6829 0.1741,-0.4553 0.2611,-0.9954 0.2611,-1.6203 0,-0.2477 -0.0357,-0.433 -0.1049,-0.5513 -0.0692,-0.1205 -0.1763,-0.1807 -0.3191,-0.1807 -0.2277,0 -0.4263,0.2298 -0.5981,0.6896 -0.1719,0.4597 -0.2589,0.9976 -0.2589,1.6136zm0.4642 2.7585c-0.9374,0 -1.6516,-0.2477 -2.1403,-0.7454 -0.491,-0.4977 -0.7365,-1.2231 -0.7365,-2.1783 0,-1.2632 0.2924,-2.2742 0.8793,-3.0307 0.587,-0.7566 1.3748,-1.1338 2.3635,-1.1338 0.9374,0 1.6493,0.2477 2.1336,0.7432 0.4865,0.4932 0.7298,1.2208 0.7298,2.1805 0,1.2676 -0.2901,2.2786 -0.8726,3.033 -0.5825,0.7543 -1.3681,1.1315 -2.3568,1.1315zm6.9387 -5.0483l1.3792 -4.7002 2.5175 0 -2.5041 4.7002 -1.3926 0zm-2.9884 0l1.3792 -4.7002 2.5041 0 -2.4907 4.7002 -1.3926 0z"/>
  </g>
 </g>
</svg>
